{
  "appId": "com.ionic.capacitor",
  "appName": "ionicCapacitor",
  "bundledWebRuntime": false,
  "npmClient": "npm",
  "webDir": "www",
  "plugins": {
    "GoogleAuth": {
      "scopes": ["profile", "email"],
      "serverClientId": "31617739062-bvi6ma0u90g3q9ccvm7bb95hilhtuune.apps.googleusercontent.com"
    }
  }
}
